FinalProject
…
 # det_per_capita_townshiplevel = combined_datasets %>% group_by(MIMU_township, Event.per.capita) %>% filter(Event == 'Detainee') %>% select(MIMU_township, Event.per.capita) %>% distinct() %>% rename(Detainees_per_capita = Event.per.capita, Township = MIMU_township)
 # det_per_capita_townshiplevel
 # 
 # average_det_per_capita = mean(det_per_capita_townshiplevel$Detainees_per_capita, na.rm=TRUE)

Lets Describe the people affected by the Coup

Q1) Who are the detainees? Where did detainment ocurred? We are interested to find out how the each township has been impacted with volumes of detainment to see how severe the level of detainment is per capita for each township

 det_per_capita_townshiplevel = combined_datasets %>% group_by(MIMU_township, Event.per.capita) %>% filter(Event == 'Detainee') %>% select(MIMU_township, Event.per.capita) %>% distinct() %>% rename(Detainees_per_capita = Event.per.capita, Township = MIMU_township)
 det_per_capita_townshiplevel

## # A tibble: 90 x 2
## # Groups:   Township, Detainees_per_capita [90]
##    Township  Detainees_per_capita
##    <chr>                    <dbl>
##  1 Other                    NA   
##  2 Kyauktada               101.  
##  3 Bago                     34.6 
##  4 Hlaing                   62.4 
##  5 Kyauktan                  5.97
##  6 Zigon                    44.4 
##  7 Thayet                    9.58
##  8 Yamethin                  3.87
##  9 Dala                      5.79
## 10 Hlegu                    36.9 
## # ... with 80 more rows
…
How does the median age of those detained vary across townships and gender

#Summarization of age and sex of detainees according to township
detainees_summary_age_sex = detainees_by_township %>% group_by(MIMU_township, sex) %>% summarise(Median_age= median(`age`))

## `summarise()` has grouped output by 'MIMU_township'. You can override using the `.groups` argument.

detainees_summary_age_sex = detainees_summary_age_sex %>% arrange(desc(Median_age))
detainees_summary_age_sex

## # A tibble: 131 x 3
## # Groups:   MIMU_township [90]
##    MIMU_township sex   Median_age
##    <chr>         <chr>      <dbl>
##  1 Tedim         M           70  
##  2 Pakokku       M           65  
##  3 Meiktila      M           60  
##  4 Kyauktada     M           54.5
##  5 Hinthada      M           50  
##  6 Tamu          M           50  
##  7 Pyay          F           49.5
##  8 Meiktila      F           49  
##  9 Mudon         M           47  
## 10 Wetlet        M           46  
## # ... with 121 more rows
…
## [1] 11

From our results we see that minimum median age is 11 and it belongs to Pathein. The highest median age of detainee is of 70 and it belongs to Tedim

How does the relationship show for regions?

#Summarization of age and sex of detainees according to region
det_summary_age_sex_region = detainees_by_township %>% group_by(`State_Region`, sex) %>% summarise(Median_age = median(`age`))

## `summarise()` has grouped output by 'State_Region'. You can override using the `.groups` argument.

det_summary_age_sex_region = det_summary_age_sex_region %>% arrange(desc(Median_age))
det_summary_age_sex_region

## # A tibble: 33 x 3
## # Groups:   State_Region [16]
##    State_Region sex   Median_age
##    <chr>        <chr>      <dbl>
##  1 Bago         F           49.5
##  2 Mandalay     F           38.5
##  3 Kayin        M           36  
##  4 Sagaing      M           32.5
##  5 <NA>         F           32  
##  6 Nay Pyi Taw  M           31  
##  7 Kachin       F           30.5
##  8 Yangon       F           30.5
##  9 Ayeyarwady   M           30  
## 10 Ayeyarwady   F           29  
## # ... with 23 more rows
…
From the results above we see that Yangon had the most number of detainees (240), imprisoners (171) and fallen (24). This is very important information, as it shows Yangon had been the center of military action against the protesters

events_by_township = combined_datasets %>% group_by(MIMU_township, Event) %>% summarize(count=n()) %>% pivot_wider(names_from=Event, values_from=count)

## `summarise()` has grouped output by 'MIMU_township'. You can override using the `.groups` argument.

events_by_township

## # A tibble: 177 x 4
## # Groups:   MIMU_township [177]
##    MIMU_township  Fallen Imprisoned Detainee
##    <chr>           <int>      <int>    <int>
##  1 Amarapura           6          1       NA
##  2 Aunglan             2         NA        1
##  3 Aungmyaythazan      3         NA       NA
##  4 Ayadaw              4         NA        4
##  5 Bago               51          2       17
##  6 Bahan               2         NA       12
##  7 Botahtaung          2         NA        2
##  8 Budalin             3         NA       NA
##  9 Chanmyathazi       13         NA       NA
## 10 Chauk               2         NA       NA
## # ... with 167 more rows
…
